C:\USERS\ALLY\DESKTOP\SEP GAME\DEBUG\BLOCK.OBJ
C:\USERS\ALLY\DESKTOP\SEP GAME\DEBUG\CHECKPOINT.OBJ
C:\Users\Ally\Desktop\SEP Game\Debug\cl.command.1.tlog
C:\Users\Ally\Desktop\SEP Game\Debug\CL.read.1.tlog
C:\Users\Ally\Desktop\SEP Game\Debug\CL.write.1.tlog
C:\USERS\ALLY\DESKTOP\SEP GAME\DEBUG\GAME.OBJ
C:\USERS\ALLY\DESKTOP\SEP GAME\DEBUG\GAMEOBJECT.OBJ
C:\USERS\ALLY\DESKTOP\SEP GAME\DEBUG\LEVEL.OBJ
C:\Users\Ally\Desktop\SEP Game\Debug\link.5544.read.1.tlog
C:\Users\Ally\Desktop\SEP Game\Debug\link.5544.write.1.tlog
C:\Users\Ally\Desktop\SEP Game\Debug\link.5544-cvtres.read.1.tlog
C:\Users\Ally\Desktop\SEP Game\Debug\link.5544-cvtres.write.1.tlog
C:\Users\Ally\Desktop\SEP Game\Debug\link.command.1.tlog
C:\Users\Ally\Desktop\SEP Game\Debug\link.read.1.tlog
C:\Users\Ally\Desktop\SEP Game\Debug\link.write.1.tlog
C:\Users\Ally\Desktop\SEP Game\Debug\link-cvtres.read.1.tlog
C:\Users\Ally\Desktop\SEP Game\Debug\link-cvtres.write.1.tlog
C:\USERS\ALLY\DESKTOP\SEP GAME\DEBUG\MAIN.OBJ
C:\Users\Ally\Desktop\SEP Game\Debug\mt.command.1.tlog
C:\Users\Ally\Desktop\SEP Game\Debug\mt.read.1.tlog
C:\Users\Ally\Desktop\SEP Game\Debug\mt.write.1.tlog
C:\USERS\ALLY\DESKTOP\SEP GAME\DEBUG\PLAYER.OBJ
C:\Users\Ally\Desktop\SEP Game\Debug\rc.command.1.tlog
C:\Users\Ally\Desktop\SEP Game\Debug\rc.read.1.tlog
C:\Users\Ally\Desktop\SEP Game\Debug\rc.write.1.tlog
C:\USERS\ALLY\DESKTOP\SEP GAME\DEBUG\SPIKE.OBJ
C:\USERS\ALLY\DESKTOP\SEP GAME\DEBUG\SPRITEHUNT.EXE
C:\USERS\ALLY\DESKTOP\SEP GAME\DEBUG\SPRITEHUNT.EXE.EMBED.MANIFEST
C:\USERS\ALLY\DESKTOP\SEP GAME\DEBUG\SPRITEHUNT.EXE.EMBED.MANIFEST.RES
C:\USERS\ALLY\DESKTOP\SEP GAME\DEBUG\SPRITEHUNT.EXE.INTERMEDIATE.MANIFEST
C:\USERS\ALLY\DESKTOP\SEP GAME\DEBUG\SPRITEHUNT.ILK
C:\USERS\ALLY\DESKTOP\SEP GAME\DEBUG\SPRITEHUNT.PDB
C:\Users\Ally\Desktop\SEP Game\Debug\SpriteHunt_manifest.rc
C:\Users\Ally\Desktop\SEP Game\Debug\vc100.idb
C:\USERS\ALLY\DESKTOP\SEP GAME\DEBUG\VC100.PDB
Debug\SpriteHunt.ilk
Debug\SpriteHunt.pdb
