xxxxxxxxxxxxxxxxxxxxxxxxxxxxxxxxxxxxxxxxxxxxxxxxxxxxxxxxxxxxxxxxxxxxxxxxxxxxxxxxxxxxxxxxxxxxx
x```````````````````````````````````````````````````````````````````````````````````````````x
x``````````````````````c````````````````````````````````````````````````````````````````````x
x``````````````````````bbbsbbb```````````````````````c``````````````````````````````````````x
x````````````````````b````````b``````````````````````bbbbbssbbbbbbssbbss````````````````````x
x``````````````````b```````````b``````````````````bbs````````````````````bb`````````````````x
x````````````````b``````````````b``````````````bb``````````````````````````sbb``````````````x
x```bbbbbbbbssbb`````````````````b```````````b````````````````````````````````bbss`````````fx
x`````````````````````````````````bbbbsbbbbbb`````````````````````````````````````sbbbbbbbbbx
xxxxxxxxxxxxxxxxxxxxxxxxxxxxxxxxxxxxxxxxxxxxxxxxxxxxxxxxxxxxxxxxxxxxxxxxxxxxxxxxxxxxxxxxxxxxx
